{
    "id": "com.modxvm.xvm.contacts",
    "name": "XVM Contacts",
    "description": "XVM Contacts",

    "version": "XVM_VERSION",
    "dependencies": ["com.modxvm.xvm"],

    "url": "https://modxvm.com/",
    "url_update": "https://modxvm.com/",

    "wot_version_min": "WOT_VERSION",
    "wot_version_exactmatch": false,

    "features": ["python"]
}
