{
    "id": "com.modxvm.xfw.fonts",
    "name": "XFW Font Manager",
    "description": "XFW Font Manager module",

    "version": "XFW_VERSION",
    "dependencies": ["com.modxvm.xfw.native", "com.modxvm.xfw.libraries"],

    "url": "https://modxvm.com/",
    "url_update": "https://modxvm.com/",

    "wot_version_min": "WOT_VERSION",
    "wot_version_exactmatch": false,

    "features": ["fonts", "native", "python"],
    "features_provide": ["fonts"],
    "architecture": ["32bit", "64bit"]
}
